{
  "parent": "minecraft:recipes/root",
  "criteria": {
    "has_brown_moa_egg": {
      "conditions": {
        "items": [
          {
            "items": [
              "lost_aether_content:brown_moa_egg"
            ]
          }
        ]
      },
      "trigger": "minecraft:inventory_changed"
    },
    "has_the_recipe": {
      "conditions": {
        "recipe": "lost_aether_content:brown_moa_incubation"
      },
      "trigger": "minecraft:recipe_unlocked"
    }
  },
  "requirements": [
    [
      "has_brown_moa_egg",
      "has_the_recipe"
    ]
  ],
  "rewards": {
    "recipes": [
      "lost_aether_content:brown_moa_incubation"
    ]
  }
}