{
  "type": "aether:enchanting",
  "category": "enchanting_blocks",
  "cookingtime": 600,
  "experience": 0.3,
  "ingredient": {
    "item": "lost_aether_content:pink_aercloud"
  },
  "result": "lost_aether_content:enchanted_pink_aercloud"
}