{
  "parent": "minecraft:block/block",
  "elements": [
    {
      "faces": {
        "down": {
          "cullface": "down",
          "texture": "#all"
        },
        "east": {
          "cullface": "east",
          "texture": "#all"
        },
        "north": {
          "cullface": "north",
          "texture": "#all"
        },
        "south": {
          "cullface": "south",
          "texture": "#all"
        },
        "up": {
          "cullface": "up",
          "texture": "#top"
        },
        "west": {
          "cullface": "west",
          "texture": "#all"
        }
      },
      "from": [
        0,
        0,
        0
      ],
      "to": [
        16,
        16,
        16
      ]
    },
    {
      "faces": {
        "down": {
          "cullface": "down",
          "forge_data": {
            "block_light": 15,
            "sky_light": 15
          },
          "texture": "#glow"
        },
        "east": {
          "cullface": "east",
          "forge_data": {
            "block_light": 15,
            "sky_light": 15
          },
          "texture": "#glow"
        },
        "north": {
          "cullface": "north",
          "forge_data": {
            "block_light": 15,
            "sky_light": 15
          },
          "texture": "#glow"
        },
        "south": {
          "cullface": "south",
          "forge_data": {
            "block_light": 15,
            "sky_light": 15
          },
          "texture": "#glow"
        },
        "up": {
          "cullface": "up",
          "forge_data": {
            "block_light": 15,
            "sky_light": 15
          },
          "texture": "#top_glow"
        },
        "west": {
          "cullface": "west",
          "forge_data": {
            "block_light": 15,
            "sky_light": 15
          },
          "texture": "#glow"
        }
      },
      "from": [
        0,
        0,
        0
      ],
      "to": [
        16,
        16,
        16
      ]
    }
  ],
  "render_type": "minecraft:cutout",
  "textures": {
    "all": "lost_aether_content:block/dungeon/light_gale_stone",
    "glow": "lost_aether_content:block/dungeon/light_gale_stone_glow",
    "particle": "#all",
    "top": "lost_aether_content:block/dungeon/light_gale_stone_top",
    "top_glow": "lost_aether_content:block/dungeon/light_gale_stone_top_glow"
  }
}